module gitlab.com/robmp/API-Exercise

go 1.12

require (
	github.com/go-openapi/errors v0.19.2
	github.com/go-openapi/loads v0.19.4
	github.com/go-openapi/runtime v0.19.7
	github.com/go-openapi/spec v0.19.4
	github.com/go-openapi/strfmt v0.19.3
	github.com/go-openapi/swag v0.19.5
	github.com/go-openapi/validate v0.19.4
	github.com/google/uuid v1.1.1
	github.com/jessevdk/go-flags v1.4.0
	github.com/lib/pq v1.2.0
	golang.org/x/crypto v0.0.0-20190617133340-57b3e21c3d56 // indirect
	golang.org/x/net v0.0.0-20191101175033-0deb6923b6d9
	golang.org/x/tools v0.0.0-20190617190820-da514acc4774 // indirect
)
